{
    "id": 39452658,
    "id_str": "39452658",
    "name": "Digi",
    "screen_name": "digitelco",
    "location": "Malaysia",
    "profile_location": null,
    "description": "Let's Inspire",
    "url": "https://t.co/Tw2fpDYwYX",
    "entities": {
        "url": {
            "urls": [
                {
                    "url": "https://t.co/Tw2fpDYwYX",
                    "expanded_url": "http://www.digi.com.my",
                    "display_url": "digi.com.my",
                    "indices": [
                        0,
                        23
                    ]
                }
            ]
        },
        "description": {
            "urls": []
        }
    },
    "protected": false,
    "followers_count": 165264,
    "friends_count": 2433,
    "listed_count": 713,
    "created_at": "Tue May 12 07:08:19 +0000 2009",
    "favourites_count": 1224,
    "utc_offset": null,
    "time_zone": null,
    "geo_enabled": true,
    "verified": true,
    "statuses_count": 67383,
    "lang": "en",
    "status": {
        "created_at": "Sat Feb 23 16:02:47 +0000 2019",
        "id": 1099338792731783168,
        "id_str": "1099338792731783168",
        "text": "@liaaanatasya &gt;&gt; The case findings can be checked under the Support &gt; Case Status tab. Don't forget to provide your\u2026 https://t.co/QIRqXySuyi",
        "truncated": true,
        "entities": {
            "hashtags": [],
            "symbols": [],
            "user_mentions": [
                {
                    "screen_name": "liaaanatasya",
                    "name": "Natasya",
                    "id": 442690283,
                    "id_str": "442690283",
                    "indices": [
                        0,
                        13
                    ]
                }
            ],
            "urls": [
                {
                    "url": "https://t.co/QIRqXySuyi",
                    "expanded_url": "https://twitter.com/i/web/status/1099338792731783168",
                    "display_url": "twitter.com/i/web/status/1\u2026",
                    "indices": [
                        126,
                        149
                    ]
                }
            ]
        },
        "source": "<a href=\"https://www.lithium.com\" rel=\"nofollow\">Lithium Tech.</a>",
        "in_reply_to_status_id": 1099333993856524289,
        "in_reply_to_status_id_str": "1099333993856524289",
        "in_reply_to_user_id": 442690283,
        "in_reply_to_user_id_str": "442690283",
        "in_reply_to_screen_name": "liaaanatasya",
        "geo": null,
        "coordinates": null,
        "place": null,
        "contributors": null,
        "is_quote_status": false,
        "retweet_count": 0,
        "favorite_count": 0,
        "favorited": false,
        "retweeted": false,
        "possibly_sensitive": false,
        "lang": "en"
    },
    "contributors_enabled": false,
    "is_translator": false,
    "is_translation_enabled": false,
    "profile_background_color": "F5F5F5",
    "profile_background_image_url": "http://abs.twimg.com/images/themes/theme1/bg.png",
    "profile_background_image_url_https": "https://abs.twimg.com/images/themes/theme1/bg.png",
    "profile_background_tile": false,
    "profile_image_url": "http://pbs.twimg.com/profile_images/611484976886910977/sIrA2ftr_normal.png",
    "profile_image_url_https": "https://pbs.twimg.com/profile_images/611484976886910977/sIrA2ftr_normal.png",
    "profile_banner_url": "https://pbs.twimg.com/profile_banners/39452658/1550630197",
    "profile_link_color": "FDDB00",
    "profile_sidebar_border_color": "FFFFFF",
    "profile_sidebar_fill_color": "FDEE1C",
    "profile_text_color": "000000",
    "profile_use_background_image": false,
    "has_extended_profile": false,
    "default_profile": false,
    "default_profile_image": false,
    "following": true,
    "follow_request_sent": false,
    "notifications": false,
    "translator_type": "none"
}