user,date,count
digitelco,11/8/2018,164297
digitelco,11/13/2018,163391
digitelco,11/17/2018,163526
digitelco,11/20/2018,163633
digitelco,11/21/2018,163674
digitelco,11/23/2018,163672
digitelco,11/23/2018,163674
digitelco,11/25/2018,163694
digitelco,12/8/2018,163838
digitelco,12/9/2018,163868
digitelco,12/11/2018,163924
digitelco,12/28/2018,164357
digitelco,12/28/2018,164357
digitelco,12/29/2018,164365
digitelco,12/29/2018,164365
digitelco,1/4/2019,164464
digitelco,1/5/2019,164477
digitelco,1/15/2019,164735
digitelco,1/15/2019,164737
digitelco,1/19/2019,164803
