user,date,count
digitelco,5/9/2018,162190
digitelco,8/9/2018,162161
digitelco,11/9/2018,162218
digitelco,11/9/2018,162206
digitelco,16/9/2018,162385
digitelco,16/9/2018,162382
digitelco,20/9/2018,162521
digitelco,20/9/2018,162521
digitelco,20/9/2018,162520
digitelco,25/9/2018,162626
digitelco,26/9/2018,162672
digitelco,28/9/2018,162743
digitelco,28/9/2018,162735
digitelco,29/9/2018,162769
digitelco,30/9/2018,162792
digitelco,2/10/2018,162846
digitelco,3/10/2018,162917
digitelco,4/10/2018,163062
digitelco,7/10/2018,163307
digitelco,9/10/2018,163373
digitelco,9/10/2018,163371
digitelco,14/10/2018,164106
digitelco,18/10/2018,164177
digitelco,24/10/2018,164399
digitelco,25/10/2018,164410
digitelco,8/11/2018,164297
digitelco,13/11/2018,163391
digitelco,17/11/2018,163526
digitelco,20/11/2018,163633
digitelco,21/11/2018,163674
digitelco,23/11/2018,163674
digitelco,23/11/2018,163672
digitelco,25/11/2018,163694
digitelco,8/12/2018,163838
digitelco,9/12/2018,163868
digitelco,11/12/2018,163924
digitelco,28/12/2018,164357
digitelco,29/12/2018,164365
digitelco,4/1/2019,164464
digitelco,5/1/2019,164477
digitelco,15/1/2019,164737
digitelco,15/1/2019,164737
digitelco,15/1/2019,164735
digitelco,15/1/2019,164735
digitelco,19/1/2019,164803
digitelco,30/1/2019,165014
digitelco,31/1/2019,165017
digitelco,8/2/2019,165123
digitelco,11/2/2019,165110
digitelco,18/2/2019,165160
digitelco,24/2/2019,165282
digitelco,25/2/2019,165290
digitelco,27/2/2019,165336
digitelco,27/2/2019,165336
