user,date,count
celcom,1-Dec-18,1
celcom,2-Dec-18,2
celcom,3-Dec-18,4
celcom,4-Dec-18,4
celcom,5-Dec-18,4
celcom,6-Dec-18,3
celcom,7-Dec-18,3
celcom,8-Dec-18,2
celcom,9-Dec-18,3
celcom,11-Dec-18,2
celcom,12-Dec-18,5
celcom,13-Dec-18,5
celcom,14-Dec-18,4
celcom,15-Dec-18,1
celcom,16-Dec-18,3
celcom,17-Dec-18,1
celcom,18-Dec-18,2
celcom,19-Dec-18,1
celcom,20-Dec-18,1
celcom,21-Dec-18,2
celcom,22-Dec-18,4
celcom,23-Dec-18,3
celcom,24-Dec-18,3
celcom,25-Dec-18,3
celcom,26-Dec-18,4
celcom,27-Dec-18,6
celcom,28-Dec-18,1
celcom,30-Dec-18,4
celcom,31-Dec-18,1
celcom,1-Jan-19,1
celcom,2-Jan-19,6
celcom,3-Jan-19,1
celcom,4-Jan-19,7
celcom,5-Jan-19,3
celcom,6-Jan-19,2
celcom,7-Jan-19,5
celcom,8-Jan-19,3
celcom,9-Jan-19,4
celcom,10-Jan-19,4
celcom,11-Jan-19,2
celcom,12-Jan-19,1
celcom,13-Jan-19,6
celcom,14-Jan-19,3
celcom,15-Jan-19,2
celcom,16-Jan-19,1
celcom,17-Jan-19,4
digi,17-Jan-19,20
digi,16-Jan-19,46
digi,15-Jan-19,25
digi,14-Jan-19,33
digi,13-Jan-19,20
digi,12-Jan-19,24
digi,11-Jan-19,27
digi,10-Jan-19,29
digi,9-Jan-19,37
digi,8-Jan-19,39
digi,7-Jan-19,42
digi,6-Jan-19,27
digi,5-Jan-19,40
digi,4-Jan-19,22
digi,3-Jan-19,27
digi,2-Jan-19,45
digi,1-Jan-19,55
digi,31-Dec-18,30
digi,30-Dec-18,14
digi,29-Dec-18,29
digi,28-Dec-18,21
digi,27-Dec-18,21
digi,26-Dec-18,19
digi,25-Dec-18,17
digi,24-Dec-18,39
digi,23-Dec-18,35
digi,22-Dec-18,37
digi,21-Dec-18,19
digi,20-Dec-18,30
digi,19-Dec-18,38
digi,18-Dec-18,29
digi,17-Dec-18,40
digi,16-Dec-18,21
digi,15-Dec-18,23
digi,14-Dec-18,14
digi,13-Dec-18,20
digi,12-Dec-18,25
digi,11-Dec-18,32
digi,10-Dec-18,27
digi,9-Dec-18,19
digi,8-Dec-18,55
digi,7-Dec-18,20
digi,6-Dec-18,20
digi,5-Dec-18,22
digi,4-Dec-18,36
digi,3-Dec-18,17
digi,2-Dec-18,37
digi,1-Dec-18,31